id,name,model_id:id,group_id:id,perm_read,perm_write,perm_create,perm_unlink
access_library_book_user,library.book.user,model_library_book,base.group_user,1,1,0,0
access_library_book_admin,library.book.admin,model_library_book,base.group_system,1,0,0,0
acl_book_librarian,library.book_librarian,model_library_book,group_librarian,1,1,1,1
access_library_book_category,access_library_book_category,model_library_book_category,base.group_user,1,0,0,0
